{
  "ExternalFunctions": [
    {
      "Name": "Unity.Collections.LowLevel.Unsafe.AtomicSafetyHandle::CheckWriteAndBumpSecondaryVersion_Injected",
      "FullName": "Unity.Collections.LowLevel.Unsafe.AtomicSafetyHandle.CheckWriteAndBumpSecondaryVersion_Injected(ref Unity.Collections.LowLevel.Unsafe.AtomicSafetyHandle handle)_E2275DBE488243AF"
    },
    {
      "Name": "Unity.Collections.LowLevel.Unsafe.AtomicSafetyHandle::IsDefaultValue",
      "FullName": "Unity.Collections.LowLevel.Unsafe.AtomicSafetyHandle.IsDefaultValue(ref Unity.Collections.LowLevel.Unsafe.AtomicSafetyHandle handle)_EC909F2AF88C0497"
    },
    {
      "Name": "Unity.Jobs.LowLevel.Unsafe.JobsUtility::get_IsExecutingJob",
      "FullName": "Unity.Jobs.LowLevel.Unsafe.JobsUtility.get_IsExecutingJob()_2DA3431E8BDE6884"
    },
    {
      "Name": "Unity.Collections.LowLevel.Unsafe.AtomicSafetyHandle::SetBumpSecondaryVersionOnScheduleWrite_Injected",
      "FullName": "Unity.Collections.LowLevel.Unsafe.AtomicSafetyHandle.SetBumpSecondaryVersionOnScheduleWrite_Injected(ref Unity.Collections.LowLevel.Unsafe.AtomicSafetyHandle handle, bool value)_2233875915ECDB24"
    },
    {
      "Name": "Unity.Collections.LowLevel.Unsafe.AtomicSafetyHandle::CheckReadAndThrowNoEarlyOut_Injected",
      "FullName": "Unity.Collections.LowLevel.Unsafe.AtomicSafetyHandle.CheckReadAndThrowNoEarlyOut_Injected(ref Unity.Collections.LowLevel.Unsafe.AtomicSafetyHandle handle)_5D0EA054F9B3B77F"
    },
    {
      "Name": "Unity.Collections.LowLevel.Unsafe.AtomicSafetyHandle::CheckWriteAndThrowNoEarlyOut_Injected",
      "FullName": "Unity.Collections.LowLevel.Unsafe.AtomicSafetyHandle.CheckWriteAndThrowNoEarlyOut_Injected(ref Unity.Collections.LowLevel.Unsafe.AtomicSafetyHandle handle)_BBB3C78A1E995A27"
    },
    {
      "Name": "Unity.Collections.LowLevel.Unsafe.AtomicSafetyHandle::Create_Injected",
      "FullName": "Unity.Collections.LowLevel.Unsafe.AtomicSafetyHandle.Create_Injected(ref Unity.Collections.LowLevel.Unsafe.AtomicSafetyHandle ret)_B90501C0654073BD"
    },
    {
      "Name": "Unity.Collections.LowLevel.Unsafe.AtomicSafetyHandle::GetTempMemoryHandle_Injected",
      "FullName": "Unity.Collections.LowLevel.Unsafe.AtomicSafetyHandle.GetTempMemoryHandle_Injected(ref Unity.Collections.LowLevel.Unsafe.AtomicSafetyHandle ret)_FCDF5C150EA4E096"
    },
    {
      "Name": "Unity.Burst.LowLevel.BurstCompilerService::GetOrCreateSharedMemory",
      "FullName": "Unity.Burst.LowLevel.BurstCompilerService.GetOrCreateSharedMemory(ref UnityEngine.Hash128 key, uint size_of, uint alignment)_C712A862C7F5F82B"
    },
    {
      "Name": "Unity.Collections.LowLevel.Unsafe.UnsafeUtility::Malloc",
      "FullName": "Unity.Collections.LowLevel.Unsafe.UnsafeUtility.Malloc(long size, int alignment, Unity.Collections.Allocator allocator)_FEDE5F1D450F457E"
    },
    {
      "Name": "Unity.Collections.LowLevel.Unsafe.UnsafeUtility::Free",
      "FullName": "Unity.Collections.LowLevel.Unsafe.UnsafeUtility.Free(void* memory, Unity.Collections.Allocator allocator)_1229507E56C0F090"
    },
    {
      "Name": "burst_abort",
      "FullName": "unused.burst_abort(System.String errorId, System.String message)_90265244C66C4094"
    }
  ]
}